Starting Single Run, Sweeps and Corners...

Current time: Fri Jun 19 21:24:35 2015 
Best design point: 1
Design specs: 
	EE505:hw4_op_test:1	corner	fast - 
	EE505:hw4_op_test:1	corner	slow - 
	EE505:hw4_op_test:1	corner	Stat_C0 - 
	EE505:hw4_op_test:1	corner	Stat_C1 - 
	EE505:hw4_op_test:1	corner	Nominal - 
Design parameters: 

Interactive.11
Number of points completed: 1
Number of simulation errors: 0
Interactive.11 completed. 
Current time: Fri Jun 19 21:25:05 2015 
